…
2. Which 5-minute interval, on average across all the days in the dataset, contains the maximum number of steps?

```r
data_by_interval %>% summarise(max_steps = max(ave_steps)) %>%
  arrange(desc(max_steps))
```

```
## # A tibble: 288 x 2
##    interval max_steps
##       <int>     <dbl>
##  1      835       206
##  2      840       196
##  3      850       183
##  4      845       180
##  5      830       177
##  6      820       171
##  7      855       167
##  8      815       158
##  9      825       155
## 10      900       143
## # ... with 278 more rows
```
…
